{
  "data": {
    "current_page": 1,
    "data": [
      {
        "id": 68,
        "user_id": 1,
        "title": "\u0645\u062d\u0635\u0648\u0644 \u06cc\u06a9",
        "body": "\u062f\u062f\u0646\u062f\u0646\u062f\u0646\u062f\u0646",
        "image": "http://roocket.org/images/uploads/1585573431homescreen512.png",
        "price": "55666",
        "created_at": "2020-03-30 13:03:51",
        "updated_at": "2020-03-30 13:03:51"
      },
      {
        "id": 67,
        "user_id": 1,
        "title": "\u0645\u062d\u0635\u0648\u0644 2",
        "body": "\u062f\u062f\u0646\u062f\u0646\u062f\u0646\u062f\u0646",
        "image": "http://roocket.org/images/uploads/1585573430homescreen512.png",
        "price": "55666",
        "created_at": "2020-03-30 13:03:50",
        "updated_at": "2020-03-30 13:03:50"
      },
      {
        "id": 66,
        "user_id": 1,
        "title": "csscs",
        "body": "cscscs",
        "image": "http://roocket.org/images/uploads/1585573083homescreen512.png",
        "price": "51",
        "created_at": "2020-03-30 12:58:03",
        "updated_at": "2020-03-30 12:58:03"
      },
      {
        "id": 64,
        "user_id": 1,
        "title": "hghgg",
        "body": "gsfgzsfg",
        "image": "http://roocket.org/images/uploads/1579339604profesor-1.jpg",
        "price": "767676",
        "created_at": "2020-01-18 09:26:44",
        "updated_at": "2020-01-18 09:26:44"
      },
      {
        "id": 65,
        "user_id": 1,
        "title": "bbbb",
        "body": "bbbbb",
        "image": "http://roocket.org/images/uploads/1579339604image-21.png",
        "price": "4345",
        "created_at": "2020-01-18 09:26:44",
        "updated_at": "2020-01-18 09:26:44"
      },
      {
        "id": 63,
        "user_id": 1,
        "title": "fffff",
        "body": "rrrrr",
        "image": "http://roocket.org/images/uploads/1579339602slider-three-3.png",
        "price": "5454",
        "created_at": "2020-01-18 09:26:42",
        "updated_at": "2020-01-18 09:26:42"
      },
      {
        "id": 70,
        "user_id": 1,
        "title": "fffff",
        "body": "rrrrr",
        "image": "http://roocket.org/images/uploads/1579339602slider-three-3.png",
        "price": "5454",
        "created_at": "2020-01-18 09:26:42",
        "updated_at": "2020-01-18 09:26:42"
      },
      {
        "id": 71,
        "user_id": 1,
        "title": "hghgg",
        "body": "gsfgzsfg",
        "image": "http://roocket.org/images/uploads/1579339604profesor-1.jpg",
        "price": "767676",
        "created_at": "2020-01-18 09:26:44",
        "updated_at": "2020-01-18 09:26:44"
      },
      {
        "id": 72,
        "user_id": 1,
        "title": "hghgg",
        "body": "gsfgzsfg",
        "image": "http://roocket.org/images/uploads/1579339604profesor-1.jpg",
        "price": "767676",
        "created_at": "2020-01-18 09:26:44",
        "updated_at": "2020-01-18 09:26:44"
      },
      {
        "id": 73,
        "user_id": 1,
        "title": "hghgg",
        "body": "gsfgzsfg",
        "image": "http://roocket.org/images/uploads/1579339604profesor-1.jpg",
        "price": "767676",
        "created_at": "2020-01-18 09:26:44",
        "updated_at": "2020-01-18 09:26:44"
      },
      {
        "id": 74,
        "user_id": 1,
        "title": "hghgg",
        "body": "gsfgzsfg",
        "image": "http://roocket.org/images/uploads/1579339604profesor-1.jpg",
        "price": "767676",
        "created_at": "2020-01-18 09:26:44",
        "updated_at": "2020-01-18 09:26:44"
      },
      {
        "id": 75,
        "user_id": 1,
        "title": "hghgg",
        "body": "gsfgzsfg",
        "image": "http://roocket.org/images/uploads/1579339604profesor-1.jpg",
        "price": "767676",
        "created_at": "2020-01-18 09:26:44",
        "updated_at": "2020-01-18 09:26:44"
      },
      {
        "id": 76,
        "user_id": 1,
        "title": "hghgg",
        "body": "gsfgzsfg",
        "image": "http://roocket.org/images/uploads/1579339604profesor-1.jpg",
        "price": "767676",
        "created_at": "2020-01-18 09:26:44",
        "updated_at": "2020-01-18 09:26:44"
      },
      {
        "id": 77,
        "user_id": 1,
        "title": "hghgg",
        "body": "gsfgzsfg",
        "image": "http://roocket.org/images/uploads/1579339604profesor-1.jpg",
        "price": "767676",
        "created_at": "2020-01-18 09:26:44",
        "updated_at": "2020-01-18 09:26:44"
      },
      {
        "id": 78,
        "user_id": 1,
        "title": "hghgg",
        "body": "gsfgzsfg",
        "image": "http://roocket.org/images/uploads/1579339604profesor-1.jpg",
        "price": "767676",
        "created_at": "2020-01-18 09:26:44",
        "updated_at": "2020-01-18 09:26:44"
      },
      {
        "id": 79,
        "user_id": 1,
        "title": "hghgg",
        "body": "gsfgzsfg",
        "image": "http://roocket.org/images/uploads/1579339604profesor-1.jpg",
        "price": "767676",
        "created_at": "2020-01-18 09:26:44",
        "updated_at": "2020-01-18 09:26:44"
      },
      {
        "id": 80,
        "user_id": 1,
        "title": "hghgg",
        "body": "gsfgzsfg",
        "image": "http://roocket.org/images/uploads/1579339604profesor-1.jpg",
        "price": "767676",
        "created_at": "2020-01-18 09:26:44",
        "updated_at": "2020-01-18 09:26:44"
      }
    ],
    "first_page_url": "http://roocket.org/api/products?page=1",
    "from": 1,
    "last_page": 10,
    "last_page_url": "http://roocket.org/api/products?page=10",
    "next_page_url": "http://roocket.org/api/products?page=2",
    "path": "http://roocket.org/api/products",
    "per_page": 6,
    "prev_page_url": null,
    "to": 6,
    "total": 59
  },
  "status": "success"
}
